{
	"description": {
		"short_name": "Loom Sample Script",
		"long_name": "",
		"author": "Franco Speziali",
		"date": "",
		"description": "A sample script to demonstrate the capabilities of Loom",
		"poster": "",
		"length": ""
	},
	"scenes": {
		"intro": {
			"long_name": "",
			"media": {
				"type": "video",
				"loop": [
					true,
					{
						"in": null,
						"out": null
					}
				],
				"autoplay": false,
				"muted": true,
				"poster": "assets/images/app/default-poster.png",
				"video": {
					"ogg": "assets/videos/TvTestCard.ogv",
					"mp4": "assets/videos/TvTestCard_512kb.mp4",
					"duration": null
				},
				"subtitles": {
					"english": "assets/subtitles/english.srt"
				}
			},
			"events": [
				{
					"call": "test",
					"disabled": false,
					"schedule": {
						"in": 0,
						"out": 5000
					},
					"parameters": {
						"x": 0.1,
						"y": 0.1,
						"class": "mediaTime"
					}
				},
				{
					"call": "test",
					"disabled": false,
					"schedule": {
						"in": 5000,
						"out": 10000
					},
					"parameters": {
						"x": 0.2,
						"y": 0.2,
						"class": "mediaTime"
					}
				},
				{
					"call": "test",
					"disabled": false,
					"schedule": {
						"in": 10000,
						"out": 15000
					},
					"parameters": {
						"x": 0.3,
						"y": 0.3,
						"class": "mediaTime"
					}
				},
				{
					"call": "test",
					"disabled": false,
					"schedule": {
						"in": 15000,
						"out": 20000
					},
					"parameters": {
						"x": 0.8,
						"y": 0.8,
						"class": "mediaTime"
					}
				}
			]
		},
		"end": {
		}
	}
}